<?xml version="1.0" encoding="utf-8"?>
<!-- Generator: Adobe Illustrator 19.0.0, SVG Export Plug-In . SVG Version: 6.00 Build 0)  -->
<svg version="1.1" id="Layer_1" xmlns="http://www.w3.org/2000/svg" xmlns:xlink="http://www.w3.org/1999/xlink" x="0px" y="0px"
	 viewBox="-194.2 286.3 18.2 18.2" style="enable-background:new -194.2 286.3 18.2 18.2;" xml:space="preserve">
<title>design_009-arrow-up-shape-direction</title>
<desc>Created with Sketch.</desc>
<g>
	<g transform="translate(-428.000000, -44.000000)">
		<polygon points="252,337.3 251,337.3 251,332 234.5,348.5 233.8,347.8 250.3,331.3 245,331.3 245,330.3 252,330.3 		"/>
	</g>
</g>
</svg>
