<?xml version="1.0" standalone="no"?>
<!DOCTYPE svg PUBLIC "-//W3C//DTD SVG 1.1//EN" "http://www.w3.org/Graphics/SVG/1.1/DTD/svg11.dtd">
<svg xmlns="http://www.w3.org/2000/svg">
<metadata>Generated by Fontastic.me</metadata>
<defs>
<font id="craftit-arrows-font" horiz-adv-x="512">
<font-face font-family="craftit-arrows-font" units-per-em="512" ascent="480" descent="-32"/>
<missing-glyph horiz-adv-x="512" />

<glyph glyph-name="arrow-left" unicode="&#97;" d="M49 270l42 42c6 5 6 14 0 20-5 5-14 5-20 0l-66-67c-6-6-6-14 0-20 32-32 61-61 66-67 6-6 15-6 20 0 6 6 6 15 0 20l-42 42 462 0c0 4 0 23 0 29l-462 0z"/>
<glyph glyph-name="arrow-right" unicode="&#98;" d="M1 270c0-6 0-25 0-29l461 0-42-42c-5-6-5-14 0-20 6-6 15-6 20 0 5 5 34 34 67 67 6 6 6 14 0 20l-67 67c-5 5-14 5-20 0-5-6-5-15 0-20l42-42-461 0z"/>
</font></defs></svg>
